0 1 1001 A DT  
2 5 1002 new JJ  
6 14 1003 industry NN  
15 21 1004 claims NNS  
22 24 1005 to TO  
25 28 1006 let VB  
29 32 1007 you PRP  
33 37 1008 peer VB PER 
38 42 1009 into IN  
43 47 1010 your PRP$  
48 55 1011 medical JJ  
56 62 1012 future NN  
63 66 1013 and CC  
67 70 1014 see VB COU 
71 75 1015 what WP  
76 84 1016 diseases VBZ  
85 88 1017 you PRP  
89 92 1018 are VBP  
93 99 1019 likely JJ  
100 102 1020 to TO  
103 106 1021 get VB  
106 107 1022 . .  
109 112 2001 The DT  
113 121 2002 industry NN  
122 124 2003 is VBZ  
125 132 2004 at-home JJ  
133 140 2005 genetic JJ  
141 148 2006 testing NN  
148 149 2007 . .  
153 156 3001 VOA NNP ORG 
156 158 3002 's POS  
159 164 3003 Carol NNP PER 
165 172 3004 Pearson NNP PER https://en.wikipedia.org/wiki/2011%E2%80%9312_Michigan_Tech_Huskies_men%27s_ice_hockey_season
173 176 3005 has VBZ  
177 181 3006 more JJR  
181 182 3007 . .  
