0 11 1001 Palestinian JJ PER 
12 21 1002 officials NNS PER 
22 25 1003 say VBP  
26 29 1004 two CD  
30 42 1005 Palestinians NNS PER 
43 47 1006 have VBP PER 
48 52 1007 been VBN  
53 59 1008 killed VBN  
60 62 1009 in IN  
63 65 1010 an DT  
66 76 1011 accidental JJ  
77 86 1012 explosion NN  
87 89 1013 in IN  
90 91 1014 a DT  
92 96 1015 West NNP  
97 101 1016 Bank NNP  
102 109 1017 refugee VBD PER 
110 114 1018 camp NN  
114 115 1019 . .  
116 119 2001 The DT  
120 129 2002 officials NNS PER 
130 133 2003 say VBP  
134 137 2004 the DT  
138 146 2005 accident NN  
147 155 2006 happened VBD  
156 161 2007 early JJ  
162 168 2008 Monday NNP  
169 171 2009 in IN  
172 175 2010 the DT  
176 181 2011 Askar NNP  
182 189 2012 refugee NN PER 
190 194 2013 camp NN  
195 197 2014 in IN  
198 201 2015 the DT  
202 206 2016 city NN  
207 209 2017 of IN  
210 216 2018 Nablus NNP CIT 
216 217 2019 . .  
218 222 3001 They PRP  
223 226 3002 say VBP  
227 229 3003 an DT  
230 233 3004 old JJ  
234 241 3005 Israeli JJ  
242 246 3006 army NN  
247 252 3007 shell NN  
253 261 3008 exploded VBD  
262 266 3009 when WRB  
267 268 3010 a DT  
269 272 3011 man NN PER 
273 276 3012 and CC  
277 280 3013 his PRP$  
281 284 3014 son NN  
285 295 3015 collecting VBG  
296 301 3016 scrap JJ  
302 307 3017 metal NN  
308 313 3018 tried VBD  
314 316 3019 to TO  
317 320 3020 cut VB  
321 328 3021 through IN  
329 331 3022 it PRP  
332 336 3023 with IN  
337 338 3024 a DT  
339 348 3025 blowtorch NN  
348 349 3026 , ,  
350 357 3027 killing VBG  
358 361 3028 the DT  
362 365 3029 two CD  
366 378 3030 Palestinians NNPS PER 
378 379 3031 . .  
