0 8 1001 Millions NNS  
9 11 1002 of IN  
12 21 1003 Americans NNPS  
22 27 1004 could MD  
28 32 1005 lose VB  
33 38 1006 their PRP$  
39 44 1007 homes NNS  
45 49 1008 this DT  
50 54 1009 year NN  
55 58 1010 and CC  
59 61 1011 in IN COU 
62 66 1012 2009 CD  
67 69 1013 as IN  
70 82 1014 foreclosures NNS  
83 89 1015 across IN  
90 93 1016 the DT  
94 100 1017 United NNP  
101 107 1018 States NNPS  
108 111 1019 are VBP  
112 121 1020 occurring VBG  
122 124 1021 at IN  
125 128 1022 the DT  
129 136 1023 highest JJS  
137 141 1024 rate NN  
142 144 1025 in IN COU 
145 152 1026 decades NNS  
152 153 1027 . .  
154 156 2001 At IN  
157 160 2002 the DT  
161 170 2003 beginning NN  
171 173 2004 of IN  
174 177 2005 the DT  
178 182 2006 year NN  
182 183 2007 , ,  
184 187 2008 the DT  
188 194 2009 number NN  
195 197 2010 of IN  
198 203 2011 homes NNS  
204 210 2012 facing VBG  
211 222 2013 foreclosure NN  
223 229 2014 jumped VBD  
230 234 2015 more JJR PER 
235 239 2016 than IN  
240 242 2017 57 CD  
243 250 2018 percent NN  
251 259 2019 compared VBN  
260 262 2020 to TO  
263 264 2021 a DT  
265 269 2022 year NN  
270 273 2023 ago RB  
273 274 2024 . .  
275 278 3001 The DT  
279 290 3002 foreclosure NN  
291 297 3003 crisis NN  
298 300 3004 is VBZ  
301 310 3005 worsening VBG  
311 318 3006 despite IN  
319 326 3007 ongoing VBG  
327 334 3008 efforts NNS  
335 337 3009 by IN  
338 342 3010 some DT  
343 350 3011 lenders NNS PER 
351 354 3012 and CC  
355 358 3013 the DT  
359 366 3014 federal JJ PER 
367 377 3015 government NN ORG 
378 380 3016 to TO  
381 385 3017 help VB PER 
386 395 3018 borrowers NNS PER 
396 402 3019 manage VB  
403 406 3020 the DT  
407 415 3021 mortgage NN  
416 424 3022 payments NNS  
425 427 3023 on IN  
428 433 3024 their PRP$  
434 439 3025 homes NNS  
439 440 3026 . .  
441 444 4001 VOA NNP ORG https://en.wikipedia.org/wiki/Voice_of_America
444 446 4002 's POS  
447 452 4003 Chris NNP PER 
453 460 4004 Simkins NNP PER 
461 468 4005 reports NNS  
469 471 4006 on IN  
472 475 4007 how WRB  
476 479 4008 one CD  
480 492 4009 organization NN  
493 495 4010 is VBZ  
496 503 4011 helping VBG  
504 510 4012 people NNS  
511 515 4013 save VBP  
516 521 4014 their PRP$  
522 527 4015 homes NNS  
527 528 4016 . .  
