0 5 1001 Today NN  
5 6 1002 , ,  
7 12 1003 April NNP  
13 15 1004 22 CD  
16 18 1005 is VBZ  
19 24 1006 Earth NNP  
25 28 1007 Day NNP  
28 29 1008 , ,  
30 31 1009 a DT  
32 38 1010 global JJ  
39 44 1011 event NN  
45 49 1012 that WDT  
50 55 1013 began VBD  
56 58 1014 in IN COU 
59 63 1015 1970 CD  
64 67 1016 and CC  
68 70 1017 is VBZ  
71 79 1018 credited VBN  
80 82 1019 by IN  
83 87 1020 some DT  
88 92 1021 with IN  
93 99 1022 giving VBG  
100 105 1023 birth NN  
106 108 1024 to TO  
109 112 1025 the DT  
113 119 1026 modern JJ  
120 133 1027 environmental JJ  
134 142 1028 movement NN  
142 143 1029 . .  
145 150 2001 Earth NNP  
151 154 2002 Day NNP  
155 159 2003 grew VBD  
160 164 2004 from IN  
165 167 2005 an DT  
168 174 2006 annual JJ  
175 180 2007 event NN  
181 183 2008 in IN COU 
184 187 2009 the DT  
188 194 2010 United NNP  
195 201 2011 States NNPS  
202 204 2012 to TO  
205 206 2013 a DT  
207 213 2014 global JJ  
214 219 2015 event NN  
220 222 2016 in IN COU 
223 228 2017 about IN  
229 232 2018 180 CD  
233 242 2019 countries NNS  
242 243 2020 . .  
244 246 3001 It PRP  
246 248 3002 's VBZ  
249 250 3003 a DT  
251 254 3004 day NN  
255 257 3005 of IN  
258 269 3006 celebration NN  
270 272 3007 in IN COU 
273 277 3008 some DT  
278 284 3009 places NNS NAT 
284 285 3010 , ,  
286 289 3011 but CC  
290 293 3012 has VBZ NAT 
294 298 3013 also RB  
299 305 3014 turned VBN  
306 310 3015 into IN  
311 312 3016 a DT  
313 316 3017 day NN  
317 319 3018 of IN  
320 326 3019 action NN  
327 330 3020 and CC  
331 341 3021 reflection NN  
342 345 3022 and CC  
346 358 3023 conversation NN  
359 362 3024 and CC  
363 372 3025 sometimes RB  
373 380 3026 protest VB  
381 386 3027 about IN  
387 390 3028 the DT  
391 400 3029 situation NN  
401 405 3030 with IN  
406 409 3031 our PRP$  
410 421 3032 environment NN COU 
421 422 3033 , ,  
423 435 3034 particularly RB  
436 443 3035 climate JJ  
444 450 3036 change NN  
450 451 3037 . .  
453 456 4001 VOA NNP ORG 
456 458 4002 's POS  
459 463 4003 Paul NNP PER https://en.wikipedia.org/wiki/Whistleblower
464 469 4004 Sisco NNP PER https://en.wikipedia.org/wiki/Whistleblower
470 473 4005 has VBZ NAT 
474 478 4006 more JJR PER 
478 479 4007 . .  
