0 9 1001 Sylvester NNP PER 
10 18 1002 Stallone NNP PER 
19 24 1003 faces VBZ  
25 30 1004 stiff JJ  
31 36 1005 fines NNS  
37 39 1006 in IN  
40 49 1007 Australia NNP COU 
49 50 1008 , ,  
51 56 1009 where WRB  
57 59 1010 he PRP  
60 62 1011 is VBZ  
63 70 1012 accused VBN PER 
71 73 1013 of IN  
74 83 1014 importing VBG  
84 85 1015 a DT  
86 101 1016 muscle-building JJ  
102 109 1017 hormone NN  
109 110 1018 . .  
111 114 2001 The DT  
115 120 2002 movie NN  
121 125 2003 star NN  
126 129 2004 was VBD COU 
130 138 2005 detained VBN  
139 142 2006 Feb NNP  
142 143 2007 . .  
144 146 3001 16 CD  
147 149 3002 in IN  
150 153 3003 the DT  
154 160 3004 Sydney NNP  
161 168 3005 airport NN  
168 169 3006 , ,  
170 175 3007 while IN  
176 187 3008 authorities NNS  
188 196 3009 searched VBD  
197 200 3010 his PRP$  
201 206 3011 hotel NN  
207 211 3012 room NN  
211 212 3013 . .  
213 215 4001 He PRP  
216 219 4002 and CC  
220 223 4003 his PRP$  
224 229 4004 group NN  
230 242 4005 subsequently RB  
243 247 4006 left VBD NAT 
248 251 4007 the DT  
252 259 4008 country NN  
259 260 4009 , ,  
261 264 4010 and CC  
265 267 4011 he PRP  
268 271 4012 was VBD COU 
272 275 4013 not RB  
276 285 4014 compelled VBN  
286 288 4015 to TO  
289 295 4016 attend VB  
296 299 4017 the DT  
300 305 4018 March NNP  
306 308 4019 13 CD  
309 316 4020 hearing NN  
316 317 4021 . .  
318 320 5001 He PRP  
321 323 5002 is VBZ  
324 331 5003 accused VBN PER 
332 334 5004 of IN  
335 345 5005 possessing VBG  
346 351 5006 human JJ ANI 
352 358 5007 growth NN  
359 366 5008 hormone NN  
366 367 5009 , ,  
368 378 5010 classified VBN  
379 381 5011 in IN  
382 391 5012 Australia NNP COU 
392 394 5013 as IN  
395 396 5014 a DT  
397 407 5015 restricted JJ  
408 429 5016 performance-enhancing JJ  
430 434 5017 drug NN  
434 435 5018 . .  
436 439 6001 The DT  
440 447 6002 maximum JJ NAT 
448 455 6003 penalty NN  
456 459 6004 for IN  
460 467 6005 illegal JJ  
468 478 6006 possession NN  
479 481 6007 is VBZ  
482 483 6008 a DT  
484 488 6009 fine NN  
489 491 6010 of IN  
492 493 6011 $ $  
493 499 6012 86,000 CD  
500 503 6013 and CC  
504 508 6014 five CD  
509 514 6015 years NNS  
515 517 6016 in IN  
518 524 6017 prison NN  
524 525 6018 . .  
526 534 7001 Stallone NN PER 
535 537 7002 is VBZ  
538 546 7003 unlikely JJ  
547 549 7004 to TO  
550 554 7005 face VB  
555 559 7006 such PDT  
560 561 7007 a DT  
562 570 7008 sentence NN  
570 571 7009 . .  
