4 9 1001 GOODY NNP  
10 18 1002 PRODUCTS NNP  
19 22 1003 Inc NNP  
22 23 1004 . .  
24 27 2001 cut VB  
28 31 2002 its PRP$  
32 41 2003 quarterly JJ  
42 50 2004 dividend NN  
51 53 2005 to TO  
54 58 2006 five CD  
59 64 2007 cents NNS  
65 66 2008 a DT  
67 72 2009 share NN  
73 77 2010 from IN  
78 82 2011 11.5 CD  
83 88 2012 cents NNS  
89 90 2013 a DT  
91 96 2014 share NN  
96 97 2015 . .  
98 101 3001 The DT  
102 109 3002 reduced JJ  
110 118 3003 dividend NN  
119 121 3004 is VBZ  
122 129 3005 payable JJ  
130 133 3006 Jan NNP  
133 134 3007 . .  
135 136 4001 2 CD  
137 139 4002 to TO  
140 145 4003 stock NN  
146 148 4004 of IN  
149 155 4005 record NN  
156 159 4006 Dec NNP NAT 
159 160 4007 . .  
161 163 5001 15 CD  
163 164 5002 . .  
165 168 6001 The DT  
169 175 6002 Kearny NNP  
175 176 6003 , ,  
177 187 6004 N.J.-based JJ  
188 193 6005 maker NN  
194 196 6006 of IN  
197 201 6007 hair NN  
202 213 6008 accessories NNS  
214 217 6009 and CC  
218 223 6010 other JJ  
224 232 6011 cosmetic JJ  
233 241 6012 products NNS  
242 246 6013 said VBD  
247 249 6014 it PRP  
250 253 6015 cut VBD  
254 257 6016 the DT  
258 266 6017 dividend NN  
267 270 6018 due JJ  
271 273 6019 to TO  
274 277 6020 its PRP$  
278 291 6021 third-quarter JJ  
292 296 6022 loss NN  
297 299 6023 of IN  
300 301 6024 $ $  
301 308 6025 992,000 CD  
308 309 6026 , ,  
310 312 6027 or CC  
313 315 6028 15 CD  
316 321 6029 cents NNS  
322 323 6030 a DT  
324 329 6031 share NN  
329 330 6032 . .  
331 333 7001 In IN  
334 337 7002 the DT  
338 346 7003 year-ago JJ  
347 354 7004 quarter NN  
354 355 7005 , ,  
356 359 7006 the DT  
360 367 7007 company NN ORG 
368 376 7008 reported VBD  
377 380 7009 net JJ  
381 387 7010 income NN  
388 390 7011 of IN  
391 392 7012 $ $  
392 395 7013 1.9 CD  
396 403 7014 million CD  
403 404 7015 , ,  
405 407 7016 or CC  
408 410 7017 29 CD  
411 416 7018 cents NNS  
417 418 7019 a DT  
419 424 7020 share NN  
424 425 7021 . .  
426 429 8001 The DT  
430 437 8002 company NN ORG 
438 442 8003 also RB  
443 450 8004 adopted VBD  
451 453 8005 an DT  
454 467 8006 anti-takeover JJ  
468 472 8007 plan NN  
472 473 8008 . .  
