0 7 1001 Chinese JJ  
8 17 1002 officials NNS  
18 21 1003 say VBP  
22 24 1004 at IN  
25 30 1005 least JJS  
31 33 1006 27 CD  
34 41 1007 workers NNS ANI 
42 45 1008 are VBP  
46 55 1009 confirmed VBN  
56 60 1010 dead JJ  
61 66 1011 after IN  
67 68 1012 a DT  
69 72 1013 gas NN  
73 82 1014 explosion NN  
83 87 1015 tore VBD  
88 95 1016 through IN  
96 97 1017 a DT  
98 102 1018 coal NN  
103 107 1019 mine NN  
108 110 1020 in IN  
111 116 1021 China NNP NAT 
116 118 1022 's POS  
119 128 1023 northwest JJS NAT 
129 136 1024 Shaanxi NNP  
137 145 1025 province NN  
145 146 1026 . .  
147 152 2001 China NNP NAT 
152 154 2002 's POS  
155 163 2003 official JJ PER 
164 170 2004 Xinhua NNP ORG https://en.wikipedia.org/wiki/Xinhua_News_Agency
171 175 2005 news NN  
176 182 2006 agency NN  
183 187 2007 says VBZ  
188 190 2008 39 CD  
191 197 2009 miners NNS PER 
198 202 2010 were VBD  
203 210 2011 working VBG  
211 213 2012 at IN  
214 217 2013 the DT  
218 226 2014 Wayaobao NNP  
227 231 2015 mine NN  
232 234 2016 in IN  
235 242 2017 Zichang NNP  
243 249 2018 county NN  
250 254 2019 when WRB  
255 258 2020 the DT  
259 264 2021 blast NN  
265 273 2022 happened VBD  
274 282 2023 Saturday NNP  
282 283 2024 . .  
284 288 3001 Five CD  
289 296 3002 workers NNS ANI 
297 303 3003 remain VBP  
304 311 3004 missing VBG  
311 312 3005 . .  
313 318 4001 Seven NNP  
319 325 4002 miners NNS PER 
326 333 4003 escaped VBD  
334 338 4004 with IN  
339 344 4005 minor JJ PER 
345 353 4006 injuries NNS  
353 354 4007 . .  
355 360 5001 China NNP NAT 
360 362 5002 's POS  
363 368 5003 mines NNS  
369 372 5004 are VBP  
373 376 5005 the DT  
377 382 5006 world NN  
382 384 5007 's POS  
385 394 5008 deadliest NN  
394 395 5009 . .  
396 405 6001 Thousands NNS  
406 408 6002 of IN  
409 416 6003 workers NNS ANI 
417 420 6004 are VBP  
421 427 6005 killed VBN  
428 432 6006 each DT  
433 437 6007 year NN  
438 440 6008 in IN  
441 446 6009 fires NNS  
446 447 6010 , ,  
448 458 6011 explosions NNS  
458 459 6012 , ,  
460 466 6013 floods NNS  
467 470 6014 and CC  
471 479 6015 cave-ins NNS  
479 480 6016 , ,  
481 488 6017 despite IN  
489 499 6018 government NN  
500 507 6019 efforts NNS  
508 510 6020 to TO  
511 518 6021 improve VB  
519 525 6022 safety NN  
525 526 6023 . .  
