0 2 1001 In IN  
3 8 1002 place NN  
9 11 1003 of IN  
12 15 1004 the DT  
16 20 1005 cult NN ORG 
21 23 1006 of IN  
24 35 1007 personality NN  
36 40 1008 that IN  
41 44 1009 the DT  
45 54 1010 Communist NNP ORG https://en.wikipedia.org/wiki/Welsh_Communist_Party
55 60 1011 Party NNP ORG https://en.wikipedia.org/wiki/%C5%A0iroki_Brijeg
61 66 1012 built VBD  
67 73 1013 around IN  
74 82 1014 Chairman NNP  
83 86 1015 Mao NNP PER https://en.wikipedia.org/wiki/Mao_Zedong
86 87 1016 , ,  
88 91 1017 the DT  
92 99 1018 Chinese NNPS PER 
100 103 1019 are VBP  
104 113 1020 embracing VBG  
114 115 1021 a DT  
116 119 1022 new JJ  
120 124 1023 cult NN ORG 
124 125 1024 : :  
126 135 1025 celebrity NN  
135 136 1026 . .  
138 140 2001 No UH  
141 148 2002 Chinese JJ PER 
149 155 2003 person NN  
156 158 2004 is VBZ  
159 163 2005 more RBR PER 
164 170 2006 famous JJ  
171 174 2007 now RB  
175 179 2008 than IN  
180 190 2009 basketball NN SPO 
191 197 2010 player NN PER 
198 201 2011 and CC  
202 205 2012 NBA NNP ORG https://en.wikipedia.org/wiki/List_of_NBA_All-Stars
206 214 2013 All-Star NNP  
214 215 2014 , ,  
216 219 2015 Yao NNP PER 
220 224 2016 Ming NNP PER 
224 225 2017 , ,  
226 229 2018 who WP ORG 
230 232 2019 is VBZ  
233 243 2020 headlining VBG  
244 249 2021 China NNP  
249 251 2022 's POS  
252 259 2023 Olympic NNP  
260 270 2024 basketball NN SPO 
271 275 2025 team NN  
275 276 2026 . .  
278 283 3001 Mandy NNP PER 
284 289 3002 Clark NNP PER 
290 297 3003 reports NNS  
298 302 3004 from IN  
303 310 3005 Beijing NNP CIT 
310 311 3006 . .  
