0 10 1001 Venezuelan JJ PER 
11 22 1002 prosecutors NNS PER 
23 27 1003 want VBP  
28 36 1004 Colombia NNP COU 
37 39 1005 to TO  
40 49 1006 extradite VB  
50 61 1007 businessman JJ PER 
62 67 1008 Pedro NNP PER 
68 75 1009 Carmona NNP PER 
75 76 1010 , ,  
77 80 1011 who WP  
81 88 1012 assumed VBD  
89 94 1013 power NN  
95 97 1014 in IN  
98 107 1015 Venezuela NNP COU 
108 114 1016 during IN  
115 116 1017 a DT  
117 122 1018 brief JJ  
123 127 1019 coup NN  
128 135 1020 against IN  
136 145 1021 President NNP PER 
146 150 1022 Hugo NNP PER 
151 157 1023 Chavez NNP PER 
158 160 1024 in IN  
161 165 1025 2002 CD  
165 166 1026 . .  
167 178 2001 Prosecutors NNS  
179 187 2002 provided VBD  
188 196 2003 evidence NN  
197 203 2004 Monday NNP  
204 213 2005 detailing VBG  
214 219 2006 their PRP$  
220 231 2007 accusations NNS  
232 239 2008 against IN  
240 247 2009 Carmona NNP PER 
247 248 2010 . .  
249 253 3001 They PRP  
254 258 3002 have VBP  
259 268 3003 requested VBN  
269 273 3004 that IN  
274 276 3005 he PRP  
277 279 3006 be VB  
280 287 3007 charged VBN  
288 292 3008 with IN  
293 301 3009 civilian JJ PER 
302 311 3010 rebellion NN  
311 312 3011 . .  
313 323 4001 Venezuelan NNP PER 
324 332 4002 military JJ ORG 
333 341 4003 officers NNS PER 
342 350 4004 arrested VBD  
351 360 4005 President NNP PER 
361 367 4006 Chavez NNP PER 
368 370 4007 in IN  
371 376 4008 April NNP  
377 381 4009 2002 CD  
382 385 4010 and CC  
386 395 4011 announced VBD  
396 399 4012 his PRP$  
400 411 4013 resignation NN  
412 417 4014 after IN  
418 420 4015 at IN  
421 426 4016 least JJS  
427 429 4017 17 CD  
430 437 4018 unarmed JJ  
438 448 4019 protesters NNS  
449 453 4020 were VBD  
454 458 4021 shot VBN  
459 462 4022 and CC  
463 469 4023 killed VBN  
470 476 4024 during IN  
477 479 4025 an DT  
480 495 4026 anti-government JJ  
496 501 4027 rally NN  
501 502 4028 . .  
503 507 5001 Coup NNP  
508 515 5002 leaders NNS  
516 525 5003 installed VBD  
526 533 5004 Carmona NNP PER 
534 536 5005 as IN  
537 544 5006 interim JJ  
545 551 5007 leader NN  
551 552 5008 . .  
553 555 6001 He PRP  
556 559 6002 was VBD  
560 566 6003 forced VBN  
567 570 6004 out RP  
571 574 6005 two CD  
575 579 6006 days NNS  
580 585 6007 later RB  
586 590 6008 when WRB  
591 599 6009 military JJ ORG 
600 607 6010 leaders NNS  
608 616 6011 withdrew VBD  
617 622 6012 their PRP$  
623 630 6013 support NN  
631 634 6014 and CC  
635 643 6015 returned VBN  
644 653 6016 President NNP PER 
654 660 6017 Chavez NNP PER 
661 663 6018 to TO  
664 670 6019 office NN  
670 671 6020 . .  
