0 1 1001 A DT  
2 8 1002 strong JJ  
9 19 1003 earthquake NN  
20 23 1004 has VBZ NAT 
24 27 1005 hit VBN  
28 36 1006 southern JJ  
37 41 1007 Iran NNP COU 
41 42 1008 . .  
44 53 2001 Officials NNS  
54 60 2002 expect VBP  
61 65 2003 some DT  
66 72 2004 damage NN  
72 73 2005 , ,  
74 77 2006 but CC  
78 83 2007 there EX NAT 
84 87 2008 are VBP  
88 90 2009 no DT  
91 98 2010 reports NNS  
99 101 2011 of IN  
102 112 2012 casualties NNS  
112 113 2013 . .  
114 121 3001 Iranian JJ  
122 131 3002 officials NNS  
132 135 3003 say VBP  
136 139 3004 the DT  
140 149 3005 magnitude NN  
150 153 3006 six CD  
154 159 3007 quake NN  
160 163 3008 was VBD COU 
164 172 3009 centered VBN  
173 175 3010 in IN  
176 177 3011 a DT  
178 186 3012 lightly- JJ  
187 196 3013 populated JJ  
197 202 3014 rural JJ  
203 207 3015 area NN COU 
208 213 3016 north NN NAT 
214 216 3017 of IN  
217 223 3018 Bandar NNP PER https://en.wikipedia.org/wiki/Bandar_Abbas
224 229 3019 Abbas NNP PER https://en.wikipedia.org/wiki/Bandar_Abbas
229 230 3020 , ,  
231 232 3021 a DT  
233 238 3022 major JJ  
239 243 3023 port NN  
244 246 3024 on IN  
247 250 3025 the DT  
251 258 3026 Persian NNP  
259 263 3027 Gulf NNP  
263 264 3028 . .  
265 269 4001 Iran NNP COU 
269 271 4002 's POS  
272 281 4003 state-run JJ  
282 286 4004 news NN  
287 293 4005 agency NN  
294 302 4006 reported VBD  
303 305 4007 at IN  
306 311 4008 least JJS  
312 315 4009 two CD  
316 327 4010 aftershocks NNS  
327 328 4011 , ,  
329 332 4012 the DT  
333 342 4013 strongest JJS  
343 352 4014 measuring VBG  
353 356 4015 4.8 CD  
357 366 4016 magnitude NN  
366 367 4017 . .  
368 372 5001 Last JJ  
373 381 5002 November NNP  
381 382 5003 , ,  
383 384 5004 a DT  
385 390 5005 quake NN  
391 393 5006 of IN  
394 397 5007 5.9 CD  
398 407 5008 magnitude JJ  
408 414 5009 struck JJ  
415 420 5010 Qeshm NNP  
421 427 5011 island NN  
427 428 5012 , ,  
429 434 5013 south NN NAT 
435 437 5014 of IN  
438 444 5015 Bandar NNP PER https://en.wikipedia.org/wiki/Bandar_Abbas
445 450 5016 Abbas NNP PER https://en.wikipedia.org/wiki/Bandar_Abbas
450 451 5017 , ,  
452 459 5018 killing VBG  
460 464 5019 nine CD  
465 471 5020 people NNS  
472 475 5021 and CC  
476 484 5022 injuring VBG  
485 491 5023 scores NNS  
492 494 5024 of IN  
495 501 5025 others NNS  
501 502 5026 . .  
