0 8 1001 U.S.-led JJ  
9 18 1002 coalition NN ORG 
19 25 1003 forces NNS  
26 33 1004 clashed VBD  
34 40 1005 Sunday NNP  
41 45 1006 with IN  
46 53 1007 Taleban NNP  
54 63 1008 militants NNS PER 
64 66 1009 in IN  
67 70 1010 the DT  
71 78 1011 country NN  
78 80 1012 's POS  
81 89 1013 southern JJ  
90 97 1014 Helmand NNP  
98 106 1015 province NN  
106 107 1016 . .  
108 116 2001 Military JJ  
117 126 2002 officials NNS  
127 130 2003 say VBP  
131 133 2004 at IN  
134 139 2005 least JJS  
140 142 2006 10 CD  
143 153 2007 insurgents NNS PER 
154 158 2008 were VBD  
159 165 2009 killed VBN  
166 170 2010 when WRB  
171 180 2011 coalition NN ORG 
181 184 2012 air NN  
185 192 2013 strikes NNS  
193 196 2014 hit VBP  
197 205 2015 militant JJ PER 
206 215 2016 positions NNS  
216 222 2017 during IN  
223 225 2018 an DT  
226 231 2019 early JJ  
232 239 2020 morning NN  
240 249 2021 operation NN  
250 252 2022 in IN  
253 256 2023 the DT  
257 264 2024 Garmser NNP  
265 273 2025 district NN  
273 274 2026 . .  
275 284 3001 Coalition NN ORG 
285 288 3002 and CC  
289 295 3003 Afghan NNP  
296 302 3004 forces NNS  
303 307 3005 have VBP PER 
308 312 3006 been VBN  
313 321 3007 fighting VBG  
322 329 3008 Taleban NNP  
330 340 3009 insurgents NNS PER 
341 346 3010 since IN  
347 352 3011 2001, CD  
353 357 3012 when WRB  
358 359 3013 a DT  
360 368 3014 U.S.-led JJ  
369 377 3015 invasion NN  
378 383 3016 drove VBD  
384 387 3017 the DT  
388 395 3018 Islamic NNP  
396 401 3019 group NN  
402 406 3020 from IN  
407 412 3021 power NN  
412 413 3022 . .  
414 422 4001 Militant JJ  
423 430 4002 attacks NNS  
431 433 4003 in IN  
434 442 4004 southern JJ  
443 446 4005 and CC  
447 454 4006 eastern JJ  
455 466 4007 Afghanistan NNP COU 
467 471 4008 have VBP PER 
472 481 4009 escalated VBN  
482 486 4010 over IN  
487 490 4011 the DT  
491 495 4012 past JJ  
496 498 4013 19 CD  
499 505 4014 months NNS  
505 506 4015 , ,  
507 514 4016 marking VBG  
515 518 4017 the DT  
519 528 4018 bloodiest JJS  
529 535 4019 period NN  
536 541 4020 since IN  
542 545 4021 the DT  
546 555 4022 beginning NN  
556 558 4023 of IN  
559 562 4024 the DT  
563 566 4025 war NN  
566 567 4026 . .  
