0 4 1001 U.S. NNP  
5 14 1002 Secretary NNP  
15 17 1003 of IN  
18 23 1004 State NNP  
24 35 1005 Condoleezza NNP PER https://en.wikipedia.org/wiki/Jada_Fire
36 40 1006 Rice NNP PER 
41 45 1007 says VBZ  
46 49 1008 she PRP  
50 56 1009 thinks VBZ  
57 60 1010 the DT  
61 71 1011 insurgents NNS PER 
72 74 1012 in IN  
75 79 1013 Iraq NNP COU 
80 83 1014 are VBP  
84 85 1015 " NNP  
85 91 1016 losing VBG  
92 97 1017 steam NN  
97 98 1018 " NN  
99 100 1019 ( (  
100 106 1020 energy NN  
106 107 1021 ) )  
108 110 1022 as IN  
111 112 1023 a DT  
113 122 1024 political JJ  
123 128 1025 force NN  
128 129 1026 . .  
130 132 2001 In IN  
133 135 2002 an DT  
136 145 2003 interview NN  
146 150 2004 with IN  
151 155 2005 Time NNP ORG 
156 164 2006 magazine NN ORG 
165 174 2007 published VBN  
175 181 2008 Sunday NNP  
181 182 2009 , ,  
183 186 2010 Ms. NNP  
187 191 2011 Rice NNP PER 
192 196 2012 said VBD  
197 200 2013 she PRP  
201 209 2014 believes VBZ  
210 213 2015 the DT  
214 224 2016 insurgents NNS PER 
225 229 2017 have VBP PER 
230 236 2018 become VBN  
237 241 2019 more RBR PER 
242 245 2020 and CC  
246 250 2021 more RBR PER 
251 259 2022 isolated JJ  
260 264 2023 from IN  
265 269 2024 Iraq NNP COU 
269 271 2025 's POS  
272 278 2026 people NNS  
279 281 2027 as IN  
282 285 2028 the DT  
286 293 2029 country NN  
293 295 2030 's POS  
296 305 2031 political JJ  
306 313 2032 process NN  
314 319 2033 moves NNS  
320 327 2034 forward RB PER 
327 328 2035 . .  
329 332 3001 Ms. NNP  
333 337 3002 Rice NNP PER 
338 342 3003 also RB  
343 349 3004 argued VBD  
350 354 3005 that IN  
355 358 3006 the DT  
359 364 3007 media NNS PER 
365 370 3008 focus VB NAT 
371 374 3009 too RB  
375 379 3010 much JJ  
380 382 3011 on IN  
383 391 3012 violence NN  
392 394 3013 in IN  
395 399 3014 Iraq NNP COU 
400 403 3015 and CC  
404 407 3016 not RB  
408 414 3017 enough RB  
415 417 3018 on IN  
418 422 3019 what WP  
423 426 3020 she PRP  
427 433 3021 called VBD  
434 438 3022 Iraq NNP COU 
438 440 3023 's POS  
441 442 3024 " NN  
442 448 3025 rather RB  
449 454 3026 quiet JJ  
455 464 3027 political JJ  
465 473 3028 progress NN  
473 474 3029 . .  
474 475 3030 " NN  
