0 10 1001 Regulators NNS  
11 14 1002 say VBP  
15 19 1003 they PRP  
20 24 1004 will MD  
25 32 1005 publish VB  
33 40 1006 results NNS  
41 43 1007 of IN  
44 45 1008 a DT  
46 53 1009 special JJ  
54 65 1010 examination NN  
66 68 1011 of IN  
69 72 1012 the DT  
73 75 1013 19 CD  
76 83 1014 largest JJS  
84 88 1015 U.S. NNP  
89 94 1016 banks NNS  
95 97 1017 on IN  
98 101 1018 May NNP  
102 103 1019 4 CD  
103 104 1020 . .  
106 113 2001 Worries NNS  
114 118 2002 that IN  
119 122 2003 the DT  
123 128 2004 large JJ  
129 134 2005 banks NNS  
135 140 2006 might MD  
141 144 2007 not RB  
145 147 2008 be VB  
148 154 2009 strong JJ  
155 161 2010 enough RB  
162 164 2011 to TO  
165 169 2012 cope VB  
170 174 2013 with IN  
175 176 2014 a DT  
177 186 2015 deepening VBG  
187 196 2016 recession NN  
197 205 2017 prompted VBD  
206 215 2018 officials NNS PER 
216 218 2019 to TO  
219 228 2020 institute VB ORG 
229 230 2021 a DT  
231 237 2022 series NN  
238 240 2023 of IN  
241 242 2024 " NNP  
242 248 2025 stress NN  
249 254 2026 tests NNS  
254 255 2027 . .  
255 256 2028 " NN  
258 265 3001 Experts NNS  
266 272 3002 looked VBD  
273 277 3003 over IN  
278 281 3004 the DT  
282 287 3005 banks NNS  
287 288 3006 ' POS  
289 295 3007 assets NNS  
296 299 3008 and CC  
300 305 3009 tried VBN  
306 308 3010 to TO  
309 315 3011 figure VB  
316 319 3012 out RP  
320 322 3013 if IN  
323 327 3014 they PRP  
328 333 3015 would MD  
334 338 3016 need VB  
339 348 3017 financial JJ  
349 353 3018 help NN PER 
354 356 3019 if IN  
357 369 3020 unemployment NN  
370 374 3021 rose VBD  
375 379 3022 even RB  
380 386 3023 higher JJR  
387 389 3024 or CC COU 
390 395 3025 other JJ  
396 404 3026 economic JJ  
405 415 3027 conditions NNS  
416 428 3028 deteriorated VBD  
428 429 3029 . .  
