0 8 1001 Military JJ  
9 18 1002 officials NNS  
19 21 1003 in IN  
22 25 1004 the DT  
26 37 1005 Philippines NNPS COU 
38 41 1006 say VBP  
42 45 1007 the DT  
46 51 1008 death NN  
52 56 1009 toll NN  
57 61 1010 from IN  
62 63 1011 a DT  
64 68 1012 fuel JJ  
69 74 1013 truck NN  
75 84 1014 explosion NN  
85 87 1015 in IN  
88 91 1016 the DT  
92 99 1017 country NN  
99 101 1018 's POS  
102 107 1019 south NN  
108 111 1020 has VBZ NAT 
112 117 1021 risen VBN  
118 120 1022 to TO  
121 123 1023 50 CD  
123 124 1024 , ,  
125 129 1025 with IN  
130 134 1026 more JJR PER 
135 139 1027 than IN  
140 142 1028 40 CD  
143 149 1029 others NNS  
150 157 1030 injured VBN  
157 158 1031 . .  
159 162 2001 The DT  
163 168 2002 truck NN  
169 177 2003 exploded VBD  
178 184 2004 Friday NNP  
185 187 2005 on IN  
188 189 2006 a DT  
190 194 2007 road NN  
195 197 2008 in IN  
198 206 2009 Zamoanga NNP  
207 210 2010 del FW  
211 214 2011 Sur NNP  
215 223 2012 province NN COU 
223 224 2013 , ,  
225 235 2014 destroying VBG  
236 239 2015 the DT  
240 246 2016 tanker NN  
246 247 2017 , ,  
248 250 2018 as RB  
251 255 2019 well RB  
256 258 2020 as IN  
259 260 2021 a DT  
261 270 2022 passenger NN PER 
271 274 2023 bus NN  
275 277 2024 on IN  
278 281 2025 the DT  
282 290 2026 opposite JJ  
291 295 2027 side NN  
296 298 2028 of IN  
299 302 2029 the DT  
303 307 2030 road NN  
307 308 2031 . .  
309 317 3001 Soldiers NNS ANI 
318 321 3002 are VBP  
322 327 3003 still RB  
328 338 3004 recovering VBG  
339 345 3005 bodies NNS  
345 346 3006 . .  
347 352 4001 There EX NAT 
353 356 4002 are VBP  
357 370 4003 disagreements NNS  
371 373 4004 as IN  
374 376 4005 to TO  
377 381 4006 what WP  
382 385 4007 the DT  
386 391 4008 truck NN  
392 395 4009 was VBD COU 
396 404 4010 carrying VBG  
404 405 4011 . .  
406 410 5001 Some DT  
411 418 5002 reports NNS  
419 422 5003 say VBP  
423 425 5004 it PRP  
426 429 5005 was VBD COU 
430 437 5006 hauling VBG  
438 448 5007 compressed JJ  
449 455 5008 carbon NN  
456 463 5009 dioxide NN  
463 464 5010 , ,  
465 470 5011 while IN  
471 477 5012 others NNS  
478 481 5013 say VBP  
482 484 5014 it PRP  
485 488 5015 was VBD COU 
489 497 5016 carrying VBG  
498 507 5017 liquified VBN  
508 517 5018 petroleum NN  
518 521 5019 gas NN  
521 522 5020 . .  
