0 5 1001 South NNP NAT 
6 13 1002 Koreans NNPS  
14 17 1003 are VBP  
18 21 1004 now RB  
22 30 1005 counting VBG  
31 34 1006 the DT  
35 39 1007 days NNS  
40 42 1008 to TO  
43 48 1009 their PRP$  
49 56 1010 country NN  
56 58 1011 's POS  
59 67 1012 historic JJ  
68 73 1013 first JJ  
74 83 1014 astronaut NN PER 
84 86 1015 in IN  
87 92 1016 space NN  
92 93 1017 , ,  
94 97 1018 set VBN  
98 100 1019 to TO  
101 107 1020 launch VB  
108 114 1021 aboard IN  
115 116 1022 a DT  
117 124 1023 Russian JJ  
125 130 1024 Soyuz NNP  
131 137 1025 rocket NN  
138 140 1026 on IN  
141 142 1027 8 CD  
143 148 1028 April NNP  
148 149 1029 . .  
150 153 2001 The DT  
154 161 2002 mission NN  
162 164 2003 is VBZ  
165 169 2004 full JJ  
170 172 2005 of IN  
173 182 2006 landmarks NNS  
182 183 2007 : :  
184 186 2008 it PRP  
187 191 2009 will MD  
192 194 2010 be VB  
195 198 2011 the DT  
199 204 2012 first JJ  
205 209 2013 time NN  
210 211 2014 a DT  
212 217 2015 South JJ NAT 
218 224 2016 Korean JJ  
225 230 2017 woman NN  
231 234 2018 has VBZ  
235 241 2019 headed VBN  
242 246 2020 into IN  
247 252 2021 orbit NN  
252 253 2022 , ,  
254 257 2023 and CC  
258 260 2024 it PRP  
261 265 2025 will MD  
266 270 2026 also RB  
271 273 2027 be VB  
274 277 2028 the DT  
278 283 2029 first JJ  
284 288 2030 time NN  
289 293 2031 that WDT  
294 295 2032 " VBZ  
295 301 2033 kimchi FW  
301 302 2034 " SYM  
303 304 2035 - :  
305 309 2036 that DT  
310 315 2037 spicy NN  
315 316 2038 , ,  
317 325 2039 garlicky JJ  
326 333 2040 cabbage NN  
334 338 2041 dish NN  
339 343 2042 that WDT  
344 354 2043 epitomizes VBZ  
355 360 2044 South NNP NAT 
361 366 2045 Korea NNP NAT 
367 368 2046 - :  
369 373 2047 will MD  
374 376 2048 be VB  
377 383 2049 served VBN  
384 386 2050 at IN  
387 390 2051 the DT  
391 403 2052 zero-gravity NN  
404 410 2053 dinner NN  
411 416 2054 table NN  
416 417 2055 . .  
417 420 3001 VOA NNP ORG 
421 426 3002 Seoul NNP  
427 440 3003 Correspondent NNP  
441 445 3004 Kurt NNP PER https://en.wikipedia.org/wiki/Kurt_Fearnley
446 451 3005 Achin NNP PER 
452 458 3006 headed VBD  
459 461 3007 to TO  
462 465 3008 the DT  
466 475 3009 high-tech JJ  
476 483 3010 kitchen NN  
484 489 3011 where WRB  
490 496 3012 kimchi NN  
497 500 3013 was VBD COU 
501 508 3014 getting VBG  
509 510 3015 a DT  
511 521 3016 pre-launch JJ  
522 530 3017 makeover NN  
530 531 3018 . .  
