0 5 1001 Sixty CD  
6 11 1002 years NNS  
12 15 1003 ago RB  
15 16 1004 , ,  
17 29 1005 fifteen-year JJ  
30 33 1006 old JJ  
34 39 1007 Roman NNP ORG 
40 51 1008 Ferencevych NNP ORG 
52 57 1009 lived VBD  
58 65 1010 through IN  
66 69 1011 the DT  
70 76 1012 waning JJ  
77 83 1013 months NNS  
84 86 1014 of IN  
87 92 1015 World NNP  
93 96 1016 War NNP  
97 99 1017 II NNP  
100 102 1018 in IN COU 
103 116 1019 war-shattered JJ  
117 123 1020 Berlin NNP PER 
123 124 1021 , ,  
125 128 1022 far RB  
129 133 1023 from IN  
134 137 1024 his PRP$  
138 144 1025 native JJ PER 
145 152 1026 Ukraine NNP COU 
152 153 1027 . .  
154 159 2001 After IN  
160 163 2002 the DT  
164 167 2003 war NN  
167 168 2004 , ,  
169 171 2005 he PRP  
172 177 2006 found VBD  
178 185 2007 himself PRP  
186 188 2008 in IN COU 
189 192 2009 the DT  
193 199 2010 United NNP  
200 206 2011 States NNPS  
208 210 2012 -- :  
211 212 2013 a DT  
213 222 2014 displaced JJ  
223 229 2015 person NN  
229 230 2016 , ,  
231 232 2017 a DT  
233 240 2018 refugee NN PER 
240 241 2019 , ,  
242 245 2020 and CC  
246 248 2021 an DT  
249 257 2022 American JJ  
258 265 2023 soldier NN  
265 266 2024 . .  
267 271 3001 Here RB  
272 274 3002 he PRP  
275 281 3003 shares NNS  
282 285 3004 his PRP$  
286 294 3005 memories NNS  
295 297 3006 of IN  
298 302 3007 that DT  
303 312 3008 turbulent JJ  
313 317 3009 time NN  
317 318 3010 . .  
321 324 4001 The DT  
325 328 4002 day NN  
329 332 4003 the DT  
333 336 4004 war NN  
337 342 4005 ended VBD  
343 345 4006 in IN COU 
346 353 4007 Germany NNP COU 
353 354 4008 , ,  
355 359 4009 Hear NNP  
360 365 4010 Roman NNP  
366 377 4011 Ferencevych NNP  
378 386 4012 describe JJ  
387 391 4013 life NN  
392 394 4014 in IN COU 
395 396 4015 a DT  
397 406 4016 Displaced NNP  
407 414 4017 Persons NNP  
414 415 4018 ' POS  
416 420 4019 Camp NNP COU 
421 426 4020 Roman NNP  
427 438 4021 Ferencevych NNP  
439 444 4022 talks NNS  
445 450 4023 about IN  
451 454 4024 the DT  
455 460 4025 goals NNS  
461 463 4026 of IN  
464 467 4027 the DT  
468 477 4028 Ukrainian NNP  
478 487 4029 Community NNP  
488 490 4030 in IN COU 
491 494 4031 the DT  
495 499 4032 U.S. NNP ORG 
