0 3 1001 The DT  
4 12 1002 European NNP ORG https://en.wikipedia.org/wiki/European_Commissioner_for_Climate_Action
13 18 1003 Union NNP ORG https://en.wikipedia.org/wiki/European_Commissioner_for_Climate_Action
19 22 1004 has VBZ  
23 30 1005 imposed VBN  
31 35 1006 more JJR PER 
36 45 1007 sanctions NNS  
46 48 1008 on IN  
49 54 1009 Burma NNP COU 
54 55 1010 . .  
56 59 2001 The DT  
60 63 2002 new JJ  
64 73 2003 sanctions NNS  
73 74 2004 , ,  
75 82 2005 adopted VBN  
83 85 2006 at IN  
86 88 2007 an DT  
89 91 2008 EU NNP ORG https://en.wikipedia.org/wiki/High_Representative_of_the_Union_for_Foreign_Affairs_and_Security_Policy
92 99 2009 foreign JJ  
100 109 2010 ministers NNS PER 
109 110 2011 ' POS  
111 118 2012 meeting NN  
119 121 2013 in IN  
122 130 2014 Brussels NNP CIT 
130 131 2015 , ,  
132 139 2016 include VBP  
140 142 2017 an DT  
143 150 2018 embargo NN  
151 153 2019 on IN  
154 157 2020 the DT  
158 164 2021 import NN PER 
165 167 2022 of IN  
168 174 2023 timber NN  
174 175 2024 , ,  
176 180 2025 gems NNS  
181 184 2026 and CC  
185 191 2027 metals NNS  
192 196 2028 from IN  
197 202 2029 Burma NNP COU 
202 203 2030 . .  
204 208 3001 They PRP  
209 213 3002 also RB  
214 220 3003 extend VBP  
221 222 3004 a DT  
223 227 3005 list NN  
228 230 3006 of IN  
231 238 3007 Burmese JJ  
239 246 3008 leaders NNS  
247 250 3009 and CC  
251 256 3010 their PRP$  
257 266 3011 relatives NNS  
267 274 3012 subject VBP PER 
275 277 3013 to TO  
278 279 3014 a DT  
280 286 3015 travel NN  
287 290 3016 ban NN  
291 294 3017 and CC  
295 301 3018 assets NNS  
302 308 3019 freeze VBP  
308 309 3020 . .  
310 313 4001 The DT  
314 316 4002 EU NNP  
317 324 4003 foreign JJ  
325 334 4004 ministers NNS PER 
335 340 4005 urged VBD  
341 346 4006 Burma NNP COU 
346 348 4007 's POS  
349 357 4008 military JJ  
358 368 4009 government NN  
369 371 4010 to TO  
372 377 4011 enter VB  
378 382 4012 into IN  
383 384 4013 a DT  
385 386 4014 " JJ  
386 396 4015 meaningful JJ  
397 405 4016 dialogue NN  
405 406 4017 " NN  
407 411 4018 that WDT  
412 416 4019 will MD  
417 421 4020 lead VB  
422 424 4021 to TO  
425 434 4022 democracy NN  
434 435 4023 . .  
436 440 5001 They PRP  
441 445 5002 also RB  
446 452 5003 called VBD  
453 456 5004 for IN  
457 460 5005 the DT  
461 468 5006 lifting NN  
469 471 5007 of IN  
472 475 5008 all DT  
476 488 5009 restrictions NNS  
489 491 5010 on IN  
492 500 5011 detained JJ  
501 511 5012 opposition NN ORG 
512 518 5013 leader NN  
519 523 5014 Aung NNP PER https://en.wikipedia.org/wiki/First_Htin_Kyaw%27s_Cabinet
524 527 5015 San NNP PER https://en.wikipedia.org/wiki/First_Htin_Kyaw%27s_Cabinet
528 531 5016 Suu NNP PER https://en.wikipedia.org/wiki/First_Htin_Kyaw%27s_Cabinet
532 535 5017 Kyi NNP PER 
535 536 5018 . .  
