0 9 1001 President NNP PER 
10 14 1002 Bush NNP PER 
15 19 1003 says VBZ  
20 24 1004 U.S. NNP COU 
25 28 1005 and CC  
29 34 1006 Iraqi NNP  
35 41 1007 forces NNS  
42 46 1008 have VBP  
47 56 1009 delivered VBN  
57 64 1010 justice NN  
65 67 1011 to TO  
68 71 1012 the DT  
72 76 1013 most RBS  
77 83 1014 wanted JJ  
84 93 1015 terrorist NN PER 
94 96 1016 in IN  
97 101 1017 Iraq NNP COU 
102 103 1018 - :  
104 107 1019 Abu NNP PER https://en.wikipedia.org/wiki/Abdelmalek_Droukdel
108 113 1020 Musab NNP PER https://en.wikipedia.org/wiki/Abdelmalek_Droukdel
114 124 1021 al-Zarqawi NN PER 
124 125 1022 . .  
126 129 2001 Mr. NNP  
130 134 2002 Bush NNP PER 
135 139 2003 said VBD  
140 142 2004 at IN  
143 146 2005 the DT  
147 152 2006 White NNP  
153 158 2007 House NNP  
159 163 2008 that IN  
164 171 2009 Zarqawi NNP PER 
172 176 2010 will MD  
177 182 2011 never RB  
183 189 2012 murder VB  
190 195 2013 again RB  
195 196 2014 , ,  
197 200 2015 and CC  
201 205 2016 that IN  
206 209 2017 his PRP$  
210 215 2018 death NN  
216 218 2019 is VBZ  
219 220 2020 a DT  
221 227 2021 severe JJ  
228 232 2022 blow NN  
233 235 2023 to TO  
236 244 2024 al-Qaida NN  
244 245 2025 . .  
246 249 3001 The DT  
250 259 3002 president NN  
260 264 3003 said VBD  
265 272 3004 Zarqawi NNP PER 
273 283 3005 personally RB  
284 287 3006 led VBD  
288 289 3007 a DT  
290 298 3008 campaign NN  
299 301 3009 of IN  
302 312 3010 beheadings NNS  
312 313 3011 , ,  
314 322 3012 killings NNS  
322 323 3013 , ,  
324 327 3014 and CC  
328 335 3015 suicide JJ  
336 343 3016 attacks NNS  
343 344 3017 . .  
345 352 4001 However RB  
352 353 4002 , ,  
354 357 4003 Mr. NNP  
358 362 4004 Bush NNP PER 
363 369 4005 warned VBD  
370 374 4006 that IN  
375 378 4007 the DT  
379 389 4008 terrorists NNS PER 
390 394 4009 will MD  
395 398 4010 try VB  
399 401 4011 to TO  
402 410 4012 continue VB  
411 418 4013 without IN  
419 426 4014 Zarqawi NNP PER 
426 427 4015 , ,  
428 431 4016 and CC  
432 437 4017 vowed VBD  
438 442 4018 that IN  
443 446 4019 the DT  
447 451 4020 U.S. NNP COU 
452 459 4021 mission NN  
460 462 4022 in IN  
463 467 4023 Iraq NNP COU 
468 472 4024 will MD  
473 481 4025 continue VB  
481 482 4026 . .  
