0 10 1001 Democratic JJ  
11 19 1002 Republic NNP  
20 22 1003 of IN  
23 28 1004 Congo NNP  
29 35 1005 troops NNS ORG 
36 39 1006 who WP ORG 
40 43 1007 are VBP  
44 54 1008 apparently RB  
55 60 1009 upset VBN  
61 65 1010 over RP  
66 67 1011 a DT  
68 71 1012 pay NN  
72 79 1013 dispute NN  
80 85 1014 fired VBN  
86 88 1015 on IN  
89 90 1016 a DT  
91 97 1017 United NNP ORG https://en.wikipedia.org/wiki/United_Nations
98 105 1018 Nations NNPS ORG https://en.wikipedia.org/wiki/United_Nations
106 110 1019 base NN  
111 113 1020 in IN  
114 117 1021 the DT  
118 125 1022 country NN  
125 127 1023 's POS  
128 135 1024 eastern JJ  
136 142 1025 region NN  
142 143 1026 . .  
145 149 2001 U.N. NNP ORG 
150 159 2002 officials NNS PER 
160 163 2003 say VBP  
164 166 2004 27 CD  
167 175 2005 soldiers NNS  
176 180 2006 have VBP PER 
181 185 2007 been VBN  
186 194 2008 arrested VBN  
195 198 2009 for IN  
199 208 2010 allegedly RB  
209 215 2011 firing VBG  
216 218 2012 on IN  
219 220 2013 a DT  
221 225 2014 U.N. NNP ORG 
226 238 2015 peacekeepers NNS  
238 239 2016 ' POS  
240 244 2017 base NN  
245 247 2018 in IN  
248 253 2019 North NNP  
254 258 2020 Kivu NNP  
259 267 2021 province NN  
267 268 2022 . .  
270 272 3001 No CC  
273 283 3002 casualties NNS  
284 288 3003 were VBD  
289 297 3004 reported VBN  
297 298 3005 . .  
300 306 4001 United NNP ORG https://en.wikipedia.org/wiki/United_Nations
307 314 4002 Nations NNPS ORG https://en.wikipedia.org/wiki/United_Nations
315 324 4003 officials NNS PER 
325 328 4004 say VBP  
329 332 4005 the DT  
333 342 4006 Congolese JJ PER 
343 349 4007 troops NNS ORG 
350 353 4008 are VBP  
354 359 4009 upset VBN  
360 367 4010 because IN  
368 372 4011 they PRP  
373 377 4012 have VBP PER 
378 381 4013 not RB  
382 386 4014 been VBN  
387 391 4015 paid VBN  
392 395 4016 for IN  
396 403 4017 several JJ  
404 410 4018 months NNS  
410 411 4019 . .  
