0 6 1001 Afghan NNP ANI 
7 16 1002 officials NNS PER 
17 20 1003 say VBP  
21 26 1004 three CD  
27 33 1005 police NN ORG 
34 42 1006 officers NNS PER 
43 47 1007 have VBP  
48 52 1008 been VBN  
53 59 1009 killed VBN  
60 62 1010 in IN  
63 66 1011 two CD  
67 76 1012 different JJ  
77 84 1013 suicide JJ  
85 93 1014 bombings NNS  
94 101 1015 Tuesday NNP  
101 102 1016 . .  
103 114 2001 Authorities NNS ORG 
115 118 2002 say VBP  
119 122 2003 one CD  
123 130 2004 officer NN PER 
131 134 2005 was VBD COU 
135 141 2006 killed VBN  
142 146 2007 when WRB  
147 148 2008 a DT  
149 155 2009 bomber NN  
156 162 2010 rammed VBD  
163 164 2011 a DT  
165 171 2012 police NN ORG 
172 175 2013 car NN  
176 178 2014 in IN  
179 182 2015 the DT  
183 191 2016 southern JJ  
192 200 2017 province NN COU 
201 203 2018 of IN  
204 211 2019 Paktika NNP  
211 212 2020 , ,  
213 217 2021 near IN  
218 221 2022 the DT  
222 228 2023 border NN  
229 233 2024 with IN  
234 242 2025 Pakistan NNP  
242 243 2026 . .  
244 248 3001 They PRP  
249 252 3002 say VBP  
253 256 3003 the DT  
257 262 3004 other JJ  
263 270 3005 bombing NN  
271 275 3006 took VBD  
276 281 3007 place NN  
282 284 3008 in IN  
285 288 3009 the DT  
289 299 3010 relatively RB  
300 305 3011 quiet JJ  
306 314 3012 province NN COU 
315 317 3013 of IN  
318 324 3014 Kunduz NNP  
324 325 3015 , ,  
326 330 3016 when WRB  
331 332 3017 a DT  
333 339 3018 bomber NN  
340 349 3019 detonated VBN  
350 353 3020 his PRP$  
354 357 3021 car NN  
358 363 3022 while IN  
364 369 3023 being VBG  
370 378 3024 followed VBN  
379 381 3025 by IN  
382 388 3026 police NN ORG 
388 389 3027 . .  
390 394 4001 That DT  
395 400 4002 blast NN  
401 407 4003 killed VBD  
408 411 4004 two CD  
412 421 4005 policemen NNS PER 
421 422 4006 . .  
423 433 5001 Separately RB  
433 434 5002 , ,  
435 445 5003 government NN  
446 455 5004 officials NNS PER 
456 460 5005 said VBD  
461 473 5006 unidentified JJ  
474 480 5007 gunmen NNS  
481 490 5008 kidnapped VBD  
491 494 5009 two CD  
495 502 5010 workers NNS ANI 
503 507 5011 from IN  
508 511 5012 the DT  
512 520 5013 ministry NN ORG 
521 523 5014 of IN  
524 529 5015 rural JJ  
530 541 5016 development NN  
541 542 5017 . .  
543 547 6001 That DT  
548 557 6002 abduction NN  
558 566 6003 occurred VBD  
567 573 6004 Monday NNP  
574 576 6005 in IN  
577 580 6006 the DT  
581 588 6007 western JJ  
589 597 6008 province NN COU 
598 600 6009 of IN  
601 607 6010 Nimroz NNP  
607 608 6011 . .  
