0 8 1001 Musician JJ  
9 12 1002 Ted NNP PER 
13 19 1003 Onulak NNP PER 
20 22 1004 is VBZ  
23 33 1005 passionate JJ  
34 39 1006 about IN  
40 43 1007 his PRP$  
44 49 1008 music NN  
49 50 1009 . .  
51 54 2001 His PRP$  
55 62 2002 playing NN  
63 66 2003 and CC  
67 74 2004 singing NN ENT 
75 80 2005 style NN  
81 84 2006 are VBP  
85 91 2007 deeply RB  
92 98 2008 rooted VBN  
99 101 2009 in IN  
102 105 2010 the DT  
106 111 2011 blues NNS  
111 112 2012 , ,  
113 116 2013 and CC  
117 119 2014 he PRP  
120 125 2015 lists VBZ  
126 130 2016 such JJ  
131 135 2017 jazz NN  
136 142 2018 greats NNS PER 
143 145 2019 as IN  
146 153 2020 Charlie NNP PER https://en.wikipedia.org/wiki/Charlie_Parker
154 160 2021 Parker NNP PER https://en.wikipedia.org/wiki/Charlie_Parker
161 164 2022 and CC  
165 169 2023 John NNP PER https://en.wikipedia.org/wiki/John_Lee_Hooker
170 173 2024 Lee NNP PER https://en.wikipedia.org/wiki/John_Lee_Hooker
174 180 2025 Hooker NNP PER https://en.wikipedia.org/wiki/John_Lee_Hooker
181 183 2026 as IN  
184 187 2027 his PRP$  
188 195 2028 musical JJ  
196 206 2029 influences NNS  
206 207 2030 . .  
208 211 3001 But CC  
212 215 3002 his PRP$  
216 223 3003 current JJ  
224 230 3004 career NN  
231 235 3005 only RB  
236 240 3006 came VBD  
241 246 3007 about IN  
247 251 3008 when WRB  
252 256 3009 fate NN  
257 267 3010 intervened VBD  
268 270 3011 in IN  
271 274 3012 his PRP$  
275 279 3013 life NN  
279 280 3014 . .  
281 284 4001 VOA NNP ORG 
284 286 4002 's POS  
287 294 4003 Tetiana NNP PER 
295 304 4004 Koprowicz NNP PER 
305 313 4005 recently RB  
314 320 4006 caught VBD  
321 323 4007 up RP  
324 328 4008 with IN  
329 332 4009 him PRP  
333 336 4010 and CC  
337 340 4011 has VBZ NAT 
341 345 4012 more JJR PER 
346 348 4013 on IN  
349 352 4014 how WRB  
353 357 4015 this DT  
358 364 4016 former JJ  
365 373 4017 diplomat NN PER 
374 380 4018 turned VBD  
381 384 4019 his PRP$  
385 389 4020 loss NN  
390 392 4021 of IN  
393 401 4022 eyesight NN  
402 406 4023 into IN  
407 418 4024 inspiration NN  
418 419 4025 . .  
420 423 5001 Jim NNP PER 
424 430 5002 Bertel NNP PER 
431 439 5003 narrates NNS  
439 440 5004 . .  
